{
  "SWADE.ButtonReset": "Réinitialiser",
  "SWADE.ButtonSubmit": "Valider",
  "SWADE.CommunityCharSheet": "Ancienne fiche de personnage",
  "SWADE.CommunityNPCSheet": "Fiche de PNJ communautaire",
  "SWADE.CommunityVicSheet": "Fiche de véhicule communautaire",
  "SWADE.CommunityItemSheet": "Fiche d'objet communautaire",
  "SWADE.Expand": "Agrandir",
  "SWADE.OfficialSheet": "Fiche officielle Savage Worlds par Pinnacle",
  "SWADE.ModHint": "Assurez-vous que votre modificateur inclut un + ou un -",
  "ACTOR.TypeCharacter": "Personnage",
  "ACTOR.TypeNpc": "PNJ",
  "ACTOR.TypeVehicle": "Véhicule",
  "ITEM.TypeWeapon": "Arme",
  "ITEM.TypeArmor": "Armure",
  "ITEM.TypeShield": "Bouclier",
  "ITEM.TypeGear": "Équipement",
  "ITEM.TypeEdge": "Atout",
  "ITEM.TypeHindrance": "Handicap",
  "ITEM.TypeSkill": "Compétence",
  "ITEM.TypePower": "Pouvoir",
  "ITEM.TypeAbility": "Capacité",
  "CARD.TypeAdventure": "Carte d'aventures",
  "CARD.TypePoker": "Carte de poker",
  "SWADE.ActionDeckPresetLight": "Paquet d'action (clair)",
  "SWADE.ActionDeckPresetDark": "Paquet d'action (sombre)",
  "SWADE.Name": "Nom",
  "SWADE.Tough": "Résistance",
  "SWADE.Race": "Espèce",
  "SWADE.Archetype": "Archétype",
  "SWADE.Pace": "Allure",
  "SWADE.Running": "Course",
  "SWADE.RunningDie": "Dé de Course",
  "SWADE.RollRun": "Cliquez pour courir",
  "SWADE.Adv": "Progressions",
  "SWADE.Rank": "Rang",
  "SWADE.Inv": "Inventaire",
  "SWADE.Summary": "Résumé",
  "SWADE.Pow": "Pouvoirs",
  "SWADE.Wildcard": "Joker",
  "SWADE.Extra": "Extra",
  "SWADE.Bennies": "Jetons",
  "SWADE.TraitMod": "Mod. Trait",
  "SWADE.SkillTest": "Jet de Compétence",
  "SWADE.AttributeTest": "Jet d'Attribut",
  "SWADE.Attributes": "Attributs",
  "SWADE.Derived": "Caractéristiques dérivées",
  "SWADE.AttrAgi": "Agilité",
  "SWADE.AttrSma": "Intellect",
  "SWADE.AnimalSmarts": "Intellect animal",
  "SWADE.AnimalSmartsMarker": "A",
  "SWADE.AttrSpr": "Âme",
  "SWADE.AttrStr": "Force",
  "SWADE.AttrVig": "Vigueur",
  "SWADE.Tweaks": "Ajustements",
  "SWADE.AttrAgiShort": "Agi",
  "SWADE.AttrSmaShort": "Int",
  "SWADE.AttrSprShort": "Âme",
  "SWADE.AttrStrShort": "For",
  "SWADE.AttrVigShort": "Vig",
  "SWADE.Skills": "Compétences",
  "SWADE.Unskilled": "Non entraîné",
  "SWADE.CoreSkill": "Compétence de base",
  "SWADE.CoreSkills": "Compétences de base",
  "SWADE.CoreSkillsDesc": "Séparez les compétences par des virgules pour définir la liste des compétences de base de tous les acteurs.",
  "SWADE.LinkAttr": "Attribut lié",
  "SWADE.ArcaneSkill": "Compétence d'arcane",
  "SWADE.ActivateArcaneDevice": "Activation du matériel",
  "SWADE.Die": "Dé",
  "SWADE.WildDie": "Dé Joker",
  "SWADE.Modifier": "Modificateur",
  "SWADE.BenniesSpend": "Dépenser un Jeton",
  "SWADE.BenniesGive": "Donner un Jeton",
  "SWADE.BenniesRefresh": "Réinitialiser les Jetons",
  "SWADE.AllBenniesRefresh": "Réinitialiser tous les Jetons",
  "SWADE.BenniesRefreshMessage": "Les Jetons ont été réinitialisés !",
  "SWADE.BenniesRefreshAllMessage": "Tous les Jetons ont été réinitialisés !",
  "SWADE.BenniesGMRefreshMessage": "Les Jetons du MJ ont été réinitialisés !",
  "SWADE.BenniesAddMessage": "a obtenu un nouveau Jeton !",
  "SWADE.BenniesGMAddMessage": "Le MJ a obtenu un nouveau Jeton !",
  "SWADE.BenniesSpendMessage": "dépense un Jeton",
  "SWADE.BenniesMax": "Réinitialisation des Jetons",
  "SWADE.EditSkill": "Modifier Compétence",
  "SWADE.EdEdge": "Modifier Atout",
  "SWADE.EdHind": "Modifier Handicap",
  "SWADE.Ed": "Modifier",
  "SWADE.Del": "Supprimer",
  "SWADE.Arcane": "Arcanes",
  "SWADE.All": "Tous",
  "SWADE.HasPowers": "A des pouvoirs",
  "SWADE.Weapons": "Armes",
  "SWADE.MeleeWeapons": "Armes de contact",
  "SWADE.RangedWeapons": "Armes à distance",
  "SWADE.Armors": "Armures",
  "SWADE.WeaponsAndArmor": "Armes & armures",
  "SWADE.Shields": "Boucliers",
  "SWADE.Biography": "Historique",
  "SWADE.Shaken": "Secoué",
  "SWADE.Distr": "Distrait",
  "SWADE.Vuln": "Vulnérable",
  "SWADE.Stunned": "Sonné",
  "SWADE.Entangled": "Entravé",
  "SWADE.Bound": "Immobilisé",
  "SWADE.Aiming": "Viser",
  "SWADE.Berserk": "Enragé",
  "SWADE.Defending": "Défense totale",
  "SWADE.Flying": "En Vol",
  "SWADE.Follow": "Suivre {name}",
  "SWADE.Unfollow": "Ne plus suivre {name}",
  "SWADE.MakeGroupLeader": "Définir le chef du groupe",
  "SWADE.RemoveGroupLeader": "Enlever le chef du groupe",
  "SWADE.AddTokenFollowers": "Ajouter le jeton sélectionné en tant que suiveur",
  "SWADE.GroupByName": "Regrouper par nom",
  "SWADE.SetGroupColor": "Définir la couleur du groupe",
  "SWADE.SelectColor": "Choisir une couleur",
  "SWADE.Holding": "En attente",
  "SWADE.Hold": "Attente",
  "SWADE.ActNow": "Agir maintenant",
  "SWADE.ActAfterCurrentCombatant": "Agir apres le combattant actuel",
  "SWADE.LoseTurn": "Perdre le tour",
  "SWADE.Frightened": "Effrayé",
  "SWADE.Encumbered": "Encombré",
  "SWADE.Prone": "À terre",
  "SWADE.BleedingOut": "Hémorragie",
  "SWADE.Diseased": "Malade",
  "SWADE.HeartAttack": "Arrêt cardiaque",
  "SWADE.OnFire": "En feu",
  "SWADE.Poisoned": "Empoisonné",
  "SWADE.Reach": "Allonge",
  "SWADE.Torch": "Torche",
  "SWADE.Invisible": "Invisible",
  "SWADE.Smite": "Frappe",
  "SWADE.Armor": "Armure",
  "SWADE.Protection": "protection",
  "SWADE.Dmg": "Dégâts",
  "SWADE.DmgOver": "Remplacement des dégâts",
  "SWADE.Ap": "PA",
  "SWADE.APLong": "Pénétration d'armure",
  "SWADE.RoF": "CdT",
  "SWADE.Mag": "Coups",
  "SWADE.Parry": "Parade",
  "SWADE.Notes": "Notes",
  "SWADE.ActionsEffects": "Actions et Effets",
  "SWADE.Actions": "Actions",
  "SWADE.DmgModUni": "Modificateur de dégâts (universel)",
  "SWADE.SkillModUni": "Modificateur de comp. (universel)",
  "SWADE.ShotsUsed": "Mun. utilisées",
  "SWADE.NaturalArmor": "Armure naturelle",
  "SWADE.HitLocations": "Localisation",
  "SWADE.Head": "Tête",
  "SWADE.Torso": "Torse",
  "SWADE.Arms": "Bras",
  "SWADE.Legs": "Jambes",
  "SWADE.MinStrLong": "Force minimale",
  "SWADE.MinStr": "Force min.",
  "SWADE.MinStrShort": "For min.",
  "SWADE.Desc": "Description",
  "SWADE.Special": "Capacités spéciales",
  "SWADE.Details": "Détails",
  "SWADE.Equippable": "Équipable",
  "SWADE.ArcaneDevice": "Objet arcanique",
  "SWADE.Misc": "Divers",
  "SWADE.QuickAccess": "Accès rapide",
  "SWADE.Effects": "Effets actifs",
  "SWADE.Hindrances": "Handicaps",
  "SWADE.MajHind": "Handicap Majeur",
  "SWADE.Major": "(Majeur)",
  "SWADE.Minor": "(Mineur)",
  "SWADE.Edges": "Atouts",
  "SWADE.ArcBack": "Arcanes",
  "SWADE.Req": "Prérequis",
  "SWADE.Conv": "Conviction",
  "SWADE.UseConv": "Fait appel à sa Conviction !",
  "SWADE.Hesitant": "Hésitant",
  "SWADE.LevelHeaded": "Tête froide",
  "SWADE.ImprovedLevelHeaded": "Sang-froid",
  "SWADE.AutoCalc": "Calculs automatiques",
  "SWADE.InclArmor": "Calcule automatiquement la Résistance, armure incluse",
  "SWADE.Label": "Label",
  "SWADE.HasMaxValue": "A une valeur max.",
  "SWADE.Enabled": "Activé",
  "SWADE.Currency": "Argent",
  "SWADE.CarryWeight": "Encombrement",
  "SWADE.Eqd": "Éqpé",
  "SWADE.Equipped": "Équipé",
  "SWADE.Unequipped": "Non équipé",
  "SWADE.Quantity": "Quantité",
  "SWADE.Weight": "Poids",
  "SWADE.Price": "Prix",
  "SWADE.PP": "Points de pouvoir",
  "SWADE.PPShort": "Pt de pouvoir",
  "SWADE.PPCost": "Cout en PP",
  "SWADE.CurPP": "Pt de pouvoir actuels",
  "SWADE.MaxPP": "Pt de pouvoir max.",
  "SWADE.Dur": "Durée",
  "SWADE.Trap": "Aspect",
  "SWADE.Wound": "Blessure",
  "SWADE.Wounds": "Blessures",
  "SWADE.WoundsMax": "Blessures max.",
  "SWADE.Fatigue": "Fatigue",
  "SWADE.FatigueMax": "Fatigue max.",
  "SWADE.Incap": "Incapacité",
  "SWADE.Init": "Initiative",
  "SWADE.DrawInit": "pioche son Initiative !",
  "SWADE.ActionDeckReset": "Réinitialisation du paquet d'actions",
  "SWADE.ActionDeckResetNotification": "Paquet d'action réinitialisé",
  "SWADE.InitDraw": "tire le...",
  "SWADE.JokersWild": "Un joker, c'est fou !",
  "SWADE.General": "Général",
  "SWADE.Addi": "Additionel",
  "SWADE.Status": "Statut",
  "SWADE.Handling": "Manœuvrabilité",
  "SWADE.Topspeed": "Vitesse Max",
  "SWADE.OutOfControl": "Hors de contrôle",
  "SWADE.Wrecked": "Épave",
  "SWADE.Item": "Objet",
  "SWADE.Cargo": "Cargaison",
  "SWADE.MaxCargo": "Encombrement max. cargaison",
  "SWADE.CargoWeight": "Poids cargaison",
  "SWADE.Mods": "Mods",
  "SWADE.ModSlots": "Emplacements de Mods",
  "SWADE.MaxMods": "Mods Maximums",
  "SWADE.Operator": "Conducteur",
  "SWADE.ManCheck": "Jet de Manœuvre",
  "SWADE.AltSkill": "Comp. alternative",
  "SWADE.Class": "Classification",
  "SWADE.Vehicular": "Arme de véhicule",
  "SWADE.VehicleMod": "Mod de véhicule",
  "SWADE.OpSkill": "Compétence de manœuvre",
  "SWADE.CardSound": "Son de pioche de carte",
  "SWADE.CardSoundDesc": "Joue un son lorsque l'Initiative est piochée",
  "SWADE.AutoInit": "Initiative automatique",
  "SWADE.AutoInitDesc": "Pioche automatiquement l'initiative à chaque tour",
  "SWADE.CreateInitChat": "Créer un message dans le chat pour l'Initiative",
  "SWADE.HideWC": "Cache le Joker des PNJ",
  "SWADE.HideWCDesc": "Ne montre pas le signe Joker aux joueurs pour les PNJ",
  "SWADE.EnableConv": "Activer la Conviction",
  "SWADE.EnableConvDesc": "Active la règle d'univers Conviction",
  "SWADE.EnableWoundPace": "Ajuster l'Allure avec les Blessures",
  "SWADE.EnableWoundPaceDesc": "Quand l'option est activée, l'Allure est automatiquement affectée par les Blessures",
  "SWADE.AutoLink": "Lier automatiquement les Jokers",
  "SWADE.AutoLinkDesc": "Les Joker PNJ auront leur pion lié lorsque leur statut sera basculé d'Extra à Joker",
  "SWADE.GmBennies": "Jetons du MJ",
  "SWADE.GmBenniesDesc": "Détermine combien de Jetons le MJ reçoit après une réinitialisation",
  "SWADE.EnableBennyNotify": "Notifications des Jetons",
  "SWADE.EnableBennyNotifyDesc": "Affiche des messages dans le chat lorsque les Jetons sont modifiés.",
  "SWADE.VehicleMods": "Mods du véhicules",
  "SWADE.VehicleModsDesc": "Le véhicule a des emplacements de mods",
  "SWADE.VehicleEdges": "Atouts du véhicule",
  "SWADE.VehicleEdgesDesc": "Le véhicule utilise des Atouts et des Handicaps",
  "SWADE.ShowBennyAnimation": "Montrer l'animation du Jeton",
  "SWADE.ShowBennyAnimationDesc": "Joue une animation en dépensant un jeton. Seulement disponible si Dice So Nice! est installé",
  "SWADE.WildDiePreset": "Thème du dé Joker",
  "SWADE.WildDiePresetDesc": "Sélectionnez un thème DSN pour votre dé Joker. Sélectionnez « Personnalisé » si vous voulez créer le vôtre ou « Aucun » si vous ne voulez pas que votre dé Joker soit différent. Gardez à l'esprit que pour le moment, il n'y a que vous qui puissiez voir votre dé Joker personnalisé. Les autres joueurs le verrons différemment.",
  "SWADE.AmmoManagement": "Gestion des munitions",
  "SWADE.AmmoManagementDesc": "Quand l'option est activée, et si c'est applicable, les actions soustraient des munitions du chargeur de votre arme. Les cartes d'objet ont aussi un nouveau bouton recharger et vous ne pourrez pas faire d'attaque si vous n'avez pas assez de munitions.",
  "SWADE.PCAmmoFromInventory": "Les PJ utilisent les munitions de l'inventaire",
  "SWADE.PCAmmoFromInventoryDesc": "Quand l'option est activée, il est possible de marquer un objet « Équipement » comme munitions. Il sera utilisé pour recharger l'arme.",
  "SWADE.NPCAmmoFromInventory": "Les PNJ utilisent les munitions de l'inventaire",
  "SWADE.VehicleAmmoFromInventory": "Les véhicules utilisent les munitions de l'inventaire",
  "SWADE.SettingConf": "Configuration des règles",
  "SWADE.SettingConfLabel": "Ouvrir la Configuration des règles",
  "SWADE.SettingConfDesc": "Ajustez le système pour qu'il s'adapte à l'univers auquel vous jouez",
  "SWADE.DiceConf": "Configuration des dés",
  "SWADE.DiceConfDesc": "Configurer les options pour l'intégration SWADE/Dice So Nice",
  "SWADE.DiceConfLabel": "Ouvrir la Configuration des dés",
  "SWADE.Formula": "Formule",
  "SWADE.SitMod": "Modificateur de situation",
  "SWADE.RollMode": "Mode de jet",
  "SWADE.RollExample": "ex. +1d6x= or -2",
  "SWADE.Roll": "Jeter",
  "SWADE.RollRaise": "Avec Prouesse",
  "SWADE.GroupRoll": "Jet de groupe",
  "SWADE.Ok": "Ok",
  "SWADE.Cancel": "Annuler",
  "SWADE.Redraw": "Re-piocher",
  "SWADE.Add": "Ajout",
  "SWADE.ConfigInit": "Configurer l'Initiative",
  "SWADE.IgnWounds": "Ignorer les Blessures",
  "SWADE.Size": "Taille",
  "SWADE.Scale": "Échelle",
  "SWADE.PickACard": "Piocher une carte",
  "SWADE.NoCardsLeft": "Il n'y a plus assez de cartes dans le paquet !",
  "SWADE.OldCard": "Ancienne carte",
  "SWADE.ActionCard": "Carte d'action",
  "SWADE.ConvictionActive": "Conviction active",
  "SWADE ConvictionActivate'": "Fait appel à sa Conviction !",
  "SWADE.ConvictionExtend": "Voulez-vous maintenir votre Conviction ?",
  "SWADE.ConvictionEnd": "vacille dans sa Conviction",
  "SWADE.NoBennies": "Vous n'avez plus de Jetons !",
  "SWADE.SBT": "Petit gabarit",
  "SWADE.MBT": "Gabarit moyen",
  "SWADE.LBT": "Grand gabarit",
  "SWADE.Cone": "Gabarit de cône",
  "SWADE.GM": "Meneur de Jeu",
  "SWADE.Vehicles": "Véhicules",
  "SWADE.AddStats": "Caractéristiques additionelles",
  "SWADE.Actors": "Personnages",
  "SWADE.Items": "Objets",
  "SWADE.Max": "Max.",
  "SWADE.Curr": "Actuel",
  "SWADE.DSNNone": "- Aucun -",
  "SWADE.Reload": "Recharger",
  "SWADE.Refresh": "Rafraichir cette carte",
  "SWADE.Ammo": "Munitions",
  "SWADE.ReloadUnneeded": "Cette arme est déjà complètement chargée",
  "SWADE.ReloadSuccess": "L'arme a été rechargée avec succès",
  "SWADE.NotEnoughAmmo": "Vous n'avez pas assez de munitions pour effectuer cette action !",
  "SWADE.NotEnoughAmmoToReload": "Il n'y a pas assez de munitions pour une recharge complète",
  "SWADE.AutoReload": "Rechargement auto.",
  "SWADE.NoAmmoSet": "Il n'y a pas de munitions affectées",
  "SWADE.Trapping": "Aspects",
  "SWADE.AddBenny": "Ajouter un Jeton",
  "SWADE.CurrentBennies": "Jetons actuels",
  "SWADE.RerollWithBenny": "Relancer avec un Jeton",
  "SWADE.FreeReroll": "Relance gratuite",
  "SWADE.HideNpcItemChatCards": "Cacher les cartes du chat d'objets des PNJ",
  "SWADE.HideNpcItemChatCardsDesc": "Quand l'option est activée, les cartes du chat d'objets des PNJ sont automatiquement envoyées en message privé à tous les Meneurs de Jeu au lieu d'être envoyées en chat public",
  "SWADE.JokersWildDesc": "Donner un Jeton à tous les PJ lorsque l'un d'entre eux tire un joker",
  "SWADE.ParryBase": "Compétence liée à la Parade",
  "SWADE.ParryBaseDesc": "Le nom de la Compétence qui sera utilisée pour calculer la Parade du personnage",
  "SWADE.AutoCalcParry": "Calculer la Parade automatiquement, bouclier inclus",
  "SWADE.Subtype": "Sous-type",
  "SWADE.SpecialAbility": "Capacité spéciale",
  "SWADE.SpecialAbilities": "Capacités spéciales",
  "SWADE.RacialAbilities": "Capacités innées",
  "SWADE.ArchetypeAbilities": "Capacités d'archétype",
  "SWADE.About": "Description",
  "SWADE.EdgesHindrances": "Atouts et Handicaps",
  "SWADE.GrantsPowers": "Accorde des pouvoirs",
  "SWADE.Crew": "Équipage requis",
  "SWADE.Passengers": "Passagers",
  "SWADE.String": "Texte",
  "SWADE.Number": "Nombre",
  "SWADE.Checkbox": "Case à cocher",
  "SWADE.Ace": "As",
  "SWADE.NoPowerPoints": "Pas de points de pouvoir",
  "SWADE.NoPowerPointsDesc": "Cette option masque les interaction avec les Points de Pouvoir lorsqu'elle est activée",
  "SWADE.WealthType": "Type de richesse",
  "SWADE.WealthDie": "Dé de richesse",
  "SWADE.WealthTypeDesc": "Choisir comment suivre la richesse et l'argent d'un personnage",
  "SWADE.CurrencyName": "Nom de la monnaie",
  "SWADE.CurrencyNameDesc": "Nommer votre monnaie",
  "SWADE.TraitRolls": "Jets de trait",
  "SWADE.Trait": "Trait",
  "SWADE.AltTrait": "Trait alternatif",
  "SWADE.ClickSuggestions": "Cliquez pour des suggestions",
  "SWADE.Quick": "Vif",
  "SWADE.BonusDamage": "Bonus aux dégâts",
  "SWADE.CoreSkillsPack": "Compétences de base du Compendium",
  "SWADE.CoreSkillsPackDesc": "Choisissez de quel compendium sont issues les compétences de base",
  "SWADE.Joker": "Joker",
  "SWADE.Subtract": "Soustrait",
  "SWADE.DmgRolls": "Jets de dégâts",
  "SWADE.SubtractPPDesc": "Enlève le cout de PP des PP disponibles",
  "SWADE.AddPPDesc": "Ajout de cout de PP aux PP disponibles",
  "SWADE.RightClickZoom": "Clic-droit pour zoomer",
  "SWADE.SysMigrationWarning": "Your SWADE system data is from too old a Foundry version and cannot be reliably migrated to the latest version. The process will be attempted, but errors may occur.",
  "SWADE.SomethingWrongWithCardComp": "Something went wrong with the card compendium, switching back to default",
  "SWADE.DeckShuffled": "Paquet de cartes mélangé automatiquement",
  "SWADE.BasePace": "Allure de base",
  "SWADE.WarningPackLocked": "Vous ne pouvez pas éditer un Compendium verrouillé. Dévérouillez-le avant modification",
  "SWADE.ActionCardEditor": "Editeur de paquet de cartes",
  "SWADE.CardFace": "Face de la carte",
  "SWADE.CardValue": "Valeur",
  "SWADE.CardSuit": "Couleur",
  "SWADE.IsJoker": "est un  Joker",
  "SWADE.OpenACEditor": "Ouvrir dans l'éditeur de cartes d'action",
  "SWADE.Yes": "Oui",
  "SWADE.No": "Non",
  "SWADE.ShowCharacterSummary": "Affiche le résumé du personnage",
  "SWADE.CharacterSummary": "Résumé du personnage",
  "SWADE.CopyHtml": "Copie le HTML",
  "SWADE.CopyMarkdown": "Copie le markdown",
  "SWADE.InitCardDeck": "Paquet de cartes pour l'initiative",
  "SWADE.Imperial": "Impérial",
  "SWADE.Metric": "Métrique",
  "SWADE.WeightUnitLabel": "Unité de poids",
  "SWADE.WeightUnitDesc": "Détermine si les poids sont mesurés en livres ou en kilogrammes. Modifier cette option NE modifiera PAS le poids des objets, uniquement la méthode de calcul de l'Encombrement",
  "SWADE.UseAttributeShorts": "Utilisation des noms d'attributs raccourcis",
  "SWADE.UseAttributeShortsDesc": "Activez cette option si vous désirez voir des noms d'attributs abrégés sur les fiches de PJ et de PNJ, par exemple Agi au lieu d'Agilité, Int au lieu d'Intellect, etc. Il vous faudra fermer et rouvrir toutes les fiches afin que cette option ne s'applique.",
  "SWADE.BennyImageSheet": "Jeton",
  "SWADE.BennyImageSheetDesc": "Sélectionnez l'image à utiliser pour les Jetons sur la fiche de personnage",
  "SWADE.Benny3DFront": "Texture avant",
  "SWADE.Benny3DFrontDesc": "Texture face avant des Jetons en 3D",
  "SWADE.Benny3DBack": "Texture arrière",
  "SWADE.Benny3DBackDesc": "Texture face arrière des Jetons en 3D",
  "SWADE.ChangeBennyWarning": "Modifier ces réglages nécessitera de rafraichir la page !",
  "SWADE.3DBennies": "Jetons 3D",
  "SWADE.HardChoices": "Choix cornéliens",
  "SWADE.HardChoicesDesc": "Cocher cette option activera la règle des Choix cornéliens",
  "SWADE.WealthSelectionNoneOther": "Aucun/Autre",
  "SWADE.Benny3DFrontBump": "Placage relief avant",
  "SWADE.Benny3DBackBump": "Placage relief arrière",
  "SWADE.Benny3DFrontBumpDesc": "le placage de relief avant d'un jeton",
  "SWADE.Benny3DBackBumpDesc": "le placage de relief arrière d'un jeton",
  "SWADE.Modifiers": "Modificateurs",
  "SWADE.ActionTraitMod": "Modificateur du trait d'action",
  "SWADE.ActionDmgMod": "Modificateur de dégàts d'action",
  "SWADE.ItemTraitMod": "Modificateur de trait de l'objet",
  "SWADE.ItemDmgMod": "Modificateur de dégàt de l'objet",
  "SWADE.Duplicates": "Doublon trouvé",
  "SWADE.DuplicateItemsBodyText": "While adding the {type} <strong>{name}</strong> to the Actor {target} the following duplicates (by name and type) have been found. The new items  have been renamed to reflect their source.",
  "SWADE.NoActionDeckFound": "Pas de paquet d'actions, création du paquet",
  "SWADE.NoActionDeckDiscardPileFound": "Pas de paquet de défausse, création du paquet",
  "SWADE.InitDiscardPile": "Paquet de défausse d'Initiative",
  "SWADE.Wealth": "Richesse",
  "SWADE.Characters": "Personnages",
  "SWADE.SettingRules": "Règles d'univers",
  "SWADE.WorldBasics": "Bases du monde",
  "SWADE.CoreSkillsList": "Liste des compétences de base",
  "SWADE.MAPenalty": "Pénalité d'actions multiples",
  "SWADE.Mod.Custom.Add": "Ajouter un modificateur particluer",
  "SWADE.Mod.Support": "Support",
  "SWADE.Mod.Preset.Choose": "Choisir une présélection...",
  "SWADE.Mod.Preset.Add": "Ajouter une présélection",
  "SWADE.Illumination._name": "Illumination",
  "SWADE.Illumination.Dim": "Faible luminosité",
  "SWADE.Illumination.Dark": "Pénombre",
  "SWADE.Illumination.Pitch": "Noir total",
  "SWADE.Cover._name": "Couvert",
  "SWADE.Cover.Shield": "Couvert - Bouclier",
  "SWADE.Cover.Light": "Couvert léger",
  "SWADE.Cover.Medium": "Couvert moyen",
  "SWADE.Cover.Heavy": "Couvert important",
  "SWADE.Cover.Total": "Couvert total",
  "SWADE.Range._name": "Portée",
  "SWADE.Range.Medium": "Portée moyenne",
  "SWADE.Range.Long": "Portée longue",
  "SWADE.Range.Extreme": "Portée extrème",
  "SWADE.ModOther": "Autre Modificateurs",
  "SWADE.Snapfire": "Tir statique",
  "SWADE.UnstablePlatform": "Plateforme instable",
  "SWADE.CannotAddRaceToRace": "Vous ne pouvez pas ajouter une espèce/archetype à une espèce/archetype!",
  "SWADE.ApplyEncumbrance": "Appliquer les malus d'encombrement",
  "SWADE.ApplyEncumbranceHint": "Apply encumbrance penalties. Please keep in mind that this currently does NOT SUPPORT {vigor} tests to resist {fatigue}!",
  "SWADE.LayOutChaseWithDeck": "Utiliser le paquet pour les poursuites",
  "SWADE.ClearChaseCards": "Supprimer les cartes de poursuite de la scène",
  "SWADE.NoSceneAvailable": "Il n'y a pas de scène disponible ou le Canvas a été désactivé",
  "SWADE.ChaseCardsCleared": "Toutes les cartes de poursuite ont été supprimées de la scène.",
  "SWADE.SetUpChase": "Définition de la poursuite",
  "SWADE.NotADeckCompendium": "The compendium you selected doesn't appear to be a legacy deck",
  "SWADE.ConvertToDeck": "Transformation en paquet",
  "SWADE.Expiration.Expiration": "Expiration",
  "SWADE.Expiration.Behavior": "Comportement de l'expiration",
  "SWADE.Expiration.BeginAuto": "Début du tour, automatique",
  "SWADE.Expiration.BeginPrompt": "Début du tour, manuel",
  "SWADE.Expiration.EndAuto": "Fin du prochain tour, automatique",
  "SWADE.Expiration.EndPrompt": "Fin du prochain tour, manuel",
  "SWADE.Expiration.None": "Aucun",
  "SWADE.Expiration.LooseTurnOnHold": "Perte du tour en attente",
  "SWADE.RemoveEffectTitle": "Suppression {label} ?",
  "SWADE.RemoveEffectBody": "<p style=\"text-align: center;\">Suppression <strong>{label}</strong> de <strong>{parent}</strong>?</p>"
}
