{
  "name": "swade-fr",
  "title": "SWADE - Traduction française",
  "description": "Ajoute le français (FRANCE) au système SWADE.<p> Une traduction Babele des compendiums est inclue mais optionnelle. (Encore en test, à utiliser à vos risques et périls !) </p> <p>*** Join the official Discord server: <a href='https://discord.gg/foundryvtt'> Official Discord</a></p><p>*** Rejoignez la communauté Francophone: <a href='https://discord.gg/pPSDNJk'>Discord francophone</a></p>",
  "version": "0.17.2.4",
  "minimumCoreVersion" : "0.7.9",
  "compatibleCoreVersion" : "0.7.9",
  "author": "BoboursToutCool, Gronyon, Kyane, LeRatierBretonnien, Sasmira, U~man,X.O. de Vorcen",
  "authors": [
    {
        "name": "BoboursToutCool",
        "discord": "BoboursToutCool#9787"
    },
    {
        "name": "Cyril - Gronyon- Ronseaux",
        "discord": "Gronyon#0843"
    },
    {
        "name": "Kyane von Schnitzel",
        "discord": "Kyane von Schnitzel#8654"
    },
    {
        "name": "LeRatierBretonnien",
        "discord": "LeRatierBretonnien#2065"
    },
    {
        "name": "Sasmira",
        "discord": "Sasmira#4566"
    },
    {
        "name": "U~man",
        "discord": "U~man#2374"
    },
    {
        "name" : "X.O. de Vorcen"
    }
],
   
  "dependencies": [
		{
		  "name": "swade",
		  "type": "system"
		},
		{
			"name": "dice-so-nice",
			"type": "module",
			"manifest": "https://gitlab.com/riccisi/foundryvtt-dice-so-nice/-/raw/master/module/module.json"
		}
	],

  "scripts": [],
  "styles": ["swade-fr.css"],
  "packs": [],
  "esmodules": [
    "modules/swade-fr-init.js"
  ],

  "languages": [
    {
      "lang": "fr",
      "name": "French (FRANCE)",
      "path": "fr.json"
    }
  ],
  
  "url": "https://gitlab.com/mesfoliesludiques/foundryvtt-swade-fr",
  "manifest": "https://gitlab.com/mesfoliesludiques/foundryvtt-swade-fr/-/raw/master/module.json",
  "download": "https://gitlab.com/mesfoliesludiques/foundryvtt-swade-fr/-/archive/master/foundryvtt-swade-fr-master.zip"
}